{
  "cadena": "Ale",
  "numero": 19,
  "boolean": true,
  "arreglo": [
    "correr",
    "programar",
    "cocinar"
  ],
  "objeto": {
    "twitter": "@joseale462",
    "email": "joseale462@gmail.com"
  },
  "nulo": null
}

